-80 -64 24 -24 -40 -24 -48 632
56 -40 8 -8 -16 -24 792
-8 -24 40 -72 -8 -80 -32 672
-48 48 -48 -32 -24 -40 -40 656
-32 -80 -48 16 -16 -48 -16 -32 -8 624
8 -8 16 -16 -24 -24 -40 -48 744
-64 -64 -24 8 -48 -8 -24 -16 -56 608
-32 -80 -16 -48 -8 -32 -24 -40 -24 -8 600
-16 -24 -24 -80 -24 -48 728
-24 -32 -40 32 -80 -40 -48 640
