-240 488 -248
-16 64 -16 872
-24 -8 -8 -16 -16 -24 16 -24 -16 24 -16 712
344 -72 560
-56 32 -56 32 -56 -32 -8 -8 648
-72 -128 -272 -168 320
-880 104
-8 88 -40 832
-960 -24
184 -16 16 -16 -16 16 -16 -16 -16 608
