-800 184
-880 104
-48 -24 -48 -56 -64 -48 -40 -16 -16 560
-16 -8 -8 -24 8 -24 -40 -32 -48 -64 640
-8 8 -8 -8 -8 -8 -8 -8 864
-8 8 -32 -8 -40 -24 824
-16 -24 -32 -40 -48 -56 -64 656
-24 -32 -16 -8 -32 -40 -48 -64 -8 648
-16 8 -40 -32 -24 -56 768
-8 -8 -8 -8 72 -16 824
-16 -16 -16 -16 -16 -16 -16 -16 -16 776
992
-16 -16 -16 -16 -16 -16 -16 -16 -16 -16 -16 728
-24 -16 -40 -40 840
