-40 -24 912
40 -24 912
72 -24 880
-40 944
-24 16 -8 920
-992
-8 -16 -16 928
992
8 -8 -16 936
-8 128 -160 672
-8 88 -40 832
-8 -16 -24 -32 -40 -832
-8 -16 -24 -32 -40 -832
-8 -16 -24 -32 -40 -816 -8
-8 976
-992
992
992
-8 976
8 -8 960
