-40 944
-40 -24 912
40 -24 912
72 -24 880
240 -240 -240 -248
-8 -8 -8 -8 -8 -8 -8 -16 -24 -24 -8 -8 -8 -8 -8 -8 -8 -8 -8 -8 -8 -8 -8 -8 -8 -8 -8 -8 -8 -8 -8 -8 -8 -8 -8 -8 -8 -8 344
16 -16 16 -24 24 -24 -40 -40 -40 -40 -40 -40 -40 -40 -40 -40 -40 -40 248
-8 -8 -8 -8 -8 -8 -8 -8 -8 -8 -8 -8 -8 -8 -8 -8 -8 -8 -8 -8 -8 -8 -8 -8 -8 -8 -8 -8 -8 -8 -8 -8 -8 -8 -8 -8 -8 -8 -8 -8 -8 -8 -8 -8 -8 -8 -8 -8 -8 -8 -8 176
-992
-992
