120 -32 48 -80 -16 656
-96 56 -72 16 -40 672
-128 -32 -72 736
24 -24 56 -72 -96 680
152 -32 64 -8 -96 600
128 -16 -40 -40 736
-40 120 -88 32 -80 592
-8 96 -80 80 -72 616
160 -56 -112 -80 552
-8 40 -80 104 -120 600
64 -40 80 -8 120 -32 600
-24 120 -64 -96 656
16 -80 -112 200 -64 480
